{
    "KPlugin": {
        "Authors": [
            {
                "Email": "hein@kde.org",
                "Name": "Eike Hein",
                "Name[ar]": "Eike Hein",
                "Name[az]": "Eike Hein",
                "Name[be]": "Eike Hein",
                "Name[bg]": "Eike Hein",
                "Name[ca@valencia]": "Eike Hein",
                "Name[ca]": "Eike Hein",
                "Name[cs]": "Eike Hein",
                "Name[da]": "Eike Hein",
                "Name[de]": "Eike Hein",
                "Name[en_GB]": "Eike Hein",
                "Name[es]": "Eike Hein",
                "Name[eu]": "Eike Hein",
                "Name[fi]": "Eike Hein",
                "Name[fr]": "Eike Hein",
                "Name[hu]": "Eike Hein",
                "Name[ia]": "Eike Hein",
                "Name[id]": "Eike Hein",
                "Name[is]": "Eike Hein",
                "Name[it]": "Eike Hein",
                "Name[ja]": "Eike Hein",
                "Name[ka]": "აიკე ჰაინი",
                "Name[ko]": "Eike Hein",
                "Name[lt]": "Eike Hein",
                "Name[nl]": "Eike Hein",
                "Name[nn]": "Eike Hein",
                "Name[pa]": "ਇਕੀ ਹੀਇਨ",
                "Name[pl]": "Eike Hein",
                "Name[pt]": "Eike Hein",
                "Name[pt_BR]": "Eike Hein",
                "Name[ro]": "Eike Hein",
                "Name[ru]": "Eike Hein",
                "Name[sk]": "Eike Hein",
                "Name[sl]": "Eike Hein",
                "Name[sv]": "Eike Hein",
                "Name[ta]": "எய்கே ஹைன்",
                "Name[tr]": "Eike Hein",
                "Name[uk]": "Eike Hein",
                "Name[vi]": "Eike Hein",
                "Name[x-test]": "xxEike Heinxx",
                "Name[zh_CN]": "Eike Hein"
            }
        ],
        "BugReportUrl": "https://bugs.kde.org/enter_bug.cgi?product=plasmashell&component=Task%20Manager%20and%20Icons-Only%20Task%20Manager",
        "Category": "Windows and Tasks",
        "Description": "Classic taskbar-style window switcher displaying icons and text",
        "Description[ar]": "مبدل نوافذ تقليدي بنمط شريط المهام يعرض الأيقونات والنص",
        "Description[az]": "Nişanlar və mətn göstərən klassik tapşırıq paneli üslubunda pəncərə dəyişdirici",
        "Description[be]": "Класічны пераключальнік акон у стылі панэлі задач, які паказвае значкі і тэкст",
        "Description[bg]": "Класически превключвател на прозорци в стил лента на задачите, показващ икони и текст",
        "Description[ca@valencia]": "Commutador de finestres clàssic d'estil barra de tasques que mostra les icones i text",
        "Description[ca]": "Commutador de finestres clàssic d'estil barra de tasques que mostra les icones i text",
        "Description[da]": "Klassisk opgavelinje-agtig vinduesskifter som viser ikoner og tekst",
        "Description[en_GB]": "Classic taskbar-style window switcher displaying icons and text",
        "Description[es]": "Selector de ventanas al estilo de la barra de tareas clásica que muestra iconos y texto",
        "Description[eu]": "Ataza-barra tankerako leiho aldatzaile klasikoa ikonoak eta testua azaltzen dituena",
        "Description[fi]": "Perinteinen tehtäväpalkkimainen ikkunavaihto kuvakkein ja tekstein",
        "Description[fr]": "Sélecteur classique de fenêtres en barre des tâches, affichant des icônes et du texte",
        "Description[ia]": "Moderne Commutator de fenestra de stilo a barra de carga monstrante  icones e texto",
        "Description[id]": "Pengalih jendela gaya taskbar klasik yang menampilkan ikon dan teks",
        "Description[it]": "Scambiatore di finestre classico in stile barra delle applicazioni che mostra icone e testo",
        "Description[ja]": "アイコンとテキストを表示するタスクバースタイルのウィンドウスイッチャー",
        "Description[ka]": "ფანჯრების კლასიკური გადამრთველი, ხატულებსა და ტექსტის ჩვენებით",
        "Description[ko]": "아이콘과 텍스트를 표시하는 고전 작업 표시줄 스타일 창 전환기",
        "Description[nl]": "Klassieke taakbalkstijl vensterschakelaar met tonen van pictogrammen en tekst",
        "Description[nn]": "Klassisk vindaugsbytar med oppgåvelinje med ikon og tekst",
        "Description[pl]": "Klasyczny przełącznik okien, wyświetlający ikony i tekst na pasku zadań",
        "Description[pt]": "Selector de janelas clássico em tarefas que mostra ícones e texto",
        "Description[pt_BR]": "Seletor de janelas estilo barra de tarefas clássico mostrando ícones e texto",
        "Description[ro]": "Comutator de ferestre clasic cu bară de sarcini, afișând pictograme și text",
        "Description[ru]": "Классический вариант панели задач, использующий значки и текст",
        "Description[sk]": "Klasický prepínač okien v štýle panela úloh zobrazujúci ikony a text",
        "Description[sl]": "Klasični preklopnik oken z vrstico opravil, ki prikazuje ikone in besedilo",
        "Description[sv]": "Klassiskt fönsterbytare med aktivitetsliknande fönster som visar ikoner och text",
        "Description[ta]": "சின்னங்களையும் பெயர்களையும் காட்டும் சாளர மாற்றி",
        "Description[tr]": "Klasik görev çubuğu tarzı, simgeler ve metin görüntüleyen pencere değiştiricisi",
        "Description[uk]": "Класичний перемикач вікон у стилі панелі задач з показом піктограм і тексту",
        "Description[vi]": "Trình chuyển cửa sổ phong cách thanh tác vụ cổ điển, hiển thị biểu tượng và chữ",
        "Description[x-test]": "xxClassic taskbar-style window switcher displaying icons and textxx",
        "Description[zh_CN]": "经典风格的同时显示图标和文本的任务栏式窗口切换器",
        "EnabledByDefault": true,
        "Icon": "preferences-system-windows",
        "Id": "org.kde.plasma.taskmanager",
        "License": "GPL-2.0+",
        "Name": "Task Manager",
        "Name[af]": "Taakbestuurder",
        "Name[ar]": "مدير المهام",
        "Name[ast]": "Xestor de xeres",
        "Name[az]": "Tapşırıq meneceri",
        "Name[be@latin]": "Kiraŭnik zadańniaŭ",
        "Name[be]": "Кіраўнік задач",
        "Name[bg]": "Управление на задачи",
        "Name[bn]": "টাস্ক ম্যানেজার",
        "Name[bs]": "Menadžer zadataka",
        "Name[ca@valencia]": "Gestor de tasques",
        "Name[ca]": "Gestor de tasques",
        "Name[cs]": "Správce úloh",
        "Name[csb]": "Menedżer dzejaniów",
        "Name[da]": "Opgavelinje",
        "Name[de]": "Fensterleiste",
        "Name[el]": "Διαχειριστής εργασιών",
        "Name[en_GB]": "Task Manager",
        "Name[eo]": "Taskadministrilo",
        "Name[es]": "Gestor de tareas",
        "Name[et]": "Tegumihaldur",
        "Name[eu]": "Ataza-kudeatzailea",
        "Name[fi]": "Tehtävienhallinta",
        "Name[fr]": "Gestionnaire de tâches",
        "Name[fy]": "Taakbehearder",
        "Name[ga]": "Bainisteoir na dTascanna",
        "Name[gl]": "Xestor de tarefas",
        "Name[gu]": "ટાસ્ક વ્યવસ્થાપક",
        "Name[he]": "מנהל משימות",
        "Name[hi]": "कार्य प्रबंधक",
        "Name[hne]": "काम प्रबंधक",
        "Name[hr]": "Upravljanje zadacima",
        "Name[hsb]": "Rjadowar nadawkow",
        "Name[hu]": "Feladatkezelő",
        "Name[ia]": "Gerente de carga",
        "Name[id]": "Task Manager",
        "Name[is]": "Verkefnastjóri",
        "Name[it]": "Gestore dei processi",
        "Name[ja]": "タスクマネージャ",
        "Name[ka]": "ამოცანების მმართველი",
        "Name[kk]": "Тапсырмалар менеджері",
        "Name[km]": "កម្មវិធី​គ្រប់គ្រង​ភារកិច្ច",
        "Name[kn]": "ಕಾರ್ಯ ವ್ಯವಸ್ಥಾಪಕ (ಟಾಸ್ಕ್ ಮ್ಯಾನೇಜರ್)",
        "Name[ko]": "작업 관리자",
        "Name[lt]": "Užduočių tvarkytuvė",
        "Name[lv]": "Uzdevumu pārvaldnieks",
        "Name[mk]": "Менаџер на апликации",
        "Name[ml]": "ടാസ്ക് മാനേജര്‍",
        "Name[mr]": "कार्य व्यवस्थापक",
        "Name[nb]": "Oppgavebehandler",
        "Name[nds]": "Opgavenpleger",
        "Name[ne]": "कार्य प्रबन्धक",
        "Name[nl]": "Takenbeheer",
        "Name[nn]": "Oppgåve­handsamar",
        "Name[or]": "କାର୍ଯ୍ୟ ପରିଚାଳକ",
        "Name[pa]": "ਟਾਸਕ ਮੈਨੇਜਰ",
        "Name[pl]": "Paskowy przełącznik zadań",
        "Name[pt]": "Gestor de Tarefas",
        "Name[pt_BR]": "Gerenciador de tarefas",
        "Name[ro]": "Gestionar de sarcini",
        "Name[ru]": "Панель задач",
        "Name[se]": "Bargogieđahalli",
        "Name[si]": "කාර්‍යය කළමණාකරු",
        "Name[sk]": "Správca úloh",
        "Name[sl]": "Upravljalnik opravil",
        "Name[sr@ijekavian]": "менаџер задатака",
        "Name[sr@ijekavianlatin]": "menadžer zadataka",
        "Name[sr@latin]": "menadžer zadataka",
        "Name[sr]": "менаџер задатака",
        "Name[sv]": "Aktivitetshanterare",
        "Name[ta]": "பணி மேலாளர்",
        "Name[te]": "కర్తవ్య నిర్వాహకి",
        "Name[tg]": "Мудири вазифаҳо",
        "Name[th]": "จัดการงาน",
        "Name[tr]": "Görev Yöneticisi",
        "Name[ug]": "ۋەزىپە باشقۇرغۇچ",
        "Name[uk]": "Менеджер задач",
        "Name[uz@cyrillic]": "Вазифа бошқарувчиси",
        "Name[uz]": "Vazifa boshqaruvchisi",
        "Name[vi]": "Trình quản lí tác vụ",
        "Name[wa]": "Manaedjeu des bouyes",
        "Name[x-test]": "xxTask Managerxx",
        "Name[zh_CN]": "任务管理器",
        "Name[zh_TW]": "含描述文字的工作管理員",
        "ServiceTypes": [
            "Plasma/Applet"
        ],
        "Version": "4.0",
        "Website": "https://userbase.kde.org/Plasma/Tasks"
    },
    "X-Plasma-API": "declarativeappletscript",
    "X-Plasma-MainScript": "ui/main.qml",
    "X-Plasma-Provides": [
        "org.kde.plasma.multitasking"
    ]
}
